[gd_scene load_steps=4 format=2]

[ext_resource path="res://assets/ic_select.png" type="Texture" id=1]
[ext_resource path="res://script/Icon.gd" type="Script" id=2]

[sub_resource type="Animation" id=1]
resource_name = "select_flickering"
loop = true
tracks/0/type = "value"
tracks/0/path = NodePath("Select:modulate")
tracks/0/interp = 1
tracks/0/loop_wrap = true
tracks/0/imported = false
tracks/0/enabled = true
tracks/0/keys = {
"times": PoolRealArray( 0, 0.5, 1 ),
"transitions": PoolRealArray( 1, 1, 1 ),
"update": 0,
"values": [ Color( 1, 1, 1, 0 ), Color( 1, 1, 1, 1 ), Color( 1, 1, 1, 0 ) ]
}

[node name="Icon" type="Button" groups=[
"icon_group",
]]
margin_left = -34.0
margin_top = -34.0
margin_right = 34.0
margin_bottom = 34.0
rect_pivot_offset = Vector2( 34, 34 )
focus_mode = 0
shortcut_in_tooltip = false
enabled_focus_mode = 0
flat = true
script = ExtResource( 2 )
__meta__ = {
"_edit_use_anchors_": false
}

[node name="Select" type="TextureRect" parent="."]
anchor_right = 1.0
anchor_bottom = 1.0
texture = ExtResource( 1 )
__meta__ = {
"_edit_use_anchors_": false
}

[node name="Sprite" type="TextureRect" parent="."]
anchor_right = 1.0
anchor_bottom = 1.0
__meta__ = {
"_edit_use_anchors_": false
}

[node name="Tween" type="Tween" parent="."]

[node name="AnimationPlayer" type="AnimationPlayer" parent="."]
anims/select_flickering = SubResource( 1 )
