[gd_scene load_steps=6 format=2]

[ext_resource path="res://script/Level.gd" type="Script" id=1]
[ext_resource path="res://assets/btn_close.png" type="Texture" id=2]
[ext_resource path="res://assets/bg_1.png" type="Texture" id=3]
[ext_resource path="res://assets/board_1.png" type="Texture" id=4]
[ext_resource path="res://assets/title_lvl_1.png" type="Texture" id=5]

[node name="Level" type="Control"]
anchor_right = 1.0
anchor_bottom = 1.0
script = ExtResource( 1 )
__meta__ = {
"_edit_use_anchors_": false
}

[node name="BG" type="TextureRect" parent="."]
anchor_left = 0.5
anchor_top = 0.5
anchor_right = 0.5
anchor_bottom = 0.5
margin_left = -250.0
margin_top = -411.5
margin_right = 250.0
margin_bottom = 411.5
texture = ExtResource( 3 )
__meta__ = {
"_edit_use_anchors_": false
}

[node name="Board" type="TextureRect" parent="."]
anchor_left = 0.5
anchor_top = 0.5
anchor_right = 0.5
anchor_bottom = 0.5
margin_left = -193.0
margin_top = -272.5
margin_right = 193.0
margin_bottom = 112.5
texture = ExtResource( 4 )
__meta__ = {
"_edit_use_anchors_": false
}

[node name="Title" type="TextureRect" parent="."]
anchor_left = 0.5
anchor_right = 0.5
margin_left = -88.5
margin_top = 40.0
margin_right = 88.5
margin_bottom = 76.0
texture = ExtResource( 5 )
__meta__ = {
"_edit_use_anchors_": false
}

[node name="Close" type="Button" parent="."]
anchor_left = 0.5
anchor_top = 1.0
anchor_right = 0.5
anchor_bottom = 1.0
margin_left = -166.0
margin_top = -126.0
margin_right = 166.0
margin_bottom = -40.0
focus_mode = 0
shortcut_in_tooltip = false
enabled_focus_mode = 0
flat = true
__meta__ = {
"_edit_group_": true
}

[node name="TextureRect" type="TextureRect" parent="Close"]
anchor_left = 0.5
anchor_top = 0.5
anchor_right = 0.5
anchor_bottom = 0.5
margin_left = -205.5
margin_top = -90.5
margin_right = 205.5
margin_bottom = 118.5
mouse_filter = 2
texture = ExtResource( 2 )
